{
  "uid" : "98d3104e051c652961429bf95fa0b5d6",
  "children" : [ {
    "name" : "TESTROBOT1",
    "children" : [ {
      "name" : "Test1",
      "uid" : "ef0b9a79ad03bc70",
      "parentUid" : "99db38a6edee1bd9d0098968f5e0d759",
      "status" : "passed",
      "time" : {
        "start" : 1596785193012,
        "stop" : 1596785195087,
        "duration" : 2075
      },
      "flaky" : false,
      "newFailed" : false,
      "parameters" : [ ]
    }, {
      "name" : "Test2",
      "uid" : "85abdff1f393ecf5",
      "parentUid" : "99db38a6edee1bd9d0098968f5e0d759",
      "status" : "failed",
      "time" : {
        "start" : 1596785195090,
        "stop" : 1596785197292,
        "duration" : 2202
      },
      "flaky" : false,
      "newFailed" : false,
      "parameters" : [ ]
    } ],
    "uid" : "99db38a6edee1bd9d0098968f5e0d759"
  }, {
    "name" : "TESTROBOT",
    "children" : [ {
      "name" : "Test",
      "uid" : "40f4d46332692877",
      "parentUid" : "f57f33400e5740b4cee35c9516cef88c",
      "status" : "passed",
      "time" : {
        "start" : 1596791941383,
        "stop" : 1596791943401,
        "duration" : 2018
      },
      "flaky" : false,
      "newFailed" : false,
      "parameters" : [ ]
    } ],
    "uid" : "f57f33400e5740b4cee35c9516cef88c"
  } ],
  "name" : "suites"
}