[ {
  "uid" : "40f4d46332692877",
  "name" : "Test",
  "time" : {
    "start" : 1596791941383,
    "stop" : 1596791943401,
    "duration" : 2018
  },
  "status" : "passed",
  "severity" : "critical"
}, {
  "uid" : "ef0b9a79ad03bc70",
  "name" : "Test1",
  "time" : {
    "start" : 1596785193012,
    "stop" : 1596785195087,
    "duration" : 2075
  },
  "status" : "passed",
  "severity" : "critical"
}, {
  "uid" : "85abdff1f393ecf5",
  "name" : "Test2",
  "time" : {
    "start" : 1596785195090,
    "stop" : 1596785197292,
    "duration" : 2202
  },
  "status" : "failed",
  "severity" : "critical"
} ]