{
  "total" : 2,
  "items" : [ {
    "uid" : "99db38a6edee1bd9d0098968f5e0d759",
    "name" : "TESTROBOT1",
    "statistic" : {
      "failed" : 1,
      "broken" : 0,
      "skipped" : 0,
      "passed" : 1,
      "unknown" : 0,
      "total" : 2
    }
  }, {
    "uid" : "f57f33400e5740b4cee35c9516cef88c",
    "name" : "TESTROBOT",
    "statistic" : {
      "failed" : 0,
      "broken" : 0,
      "skipped" : 0,
      "passed" : 1,
      "unknown" : 0,
      "total" : 1
    }
  } ]
}