{
  "reportName" : "Allure Report",
  "testRuns" : [ ],
  "statistic" : {
    "failed" : 1,
    "broken" : 0,
    "skipped" : 0,
    "passed" : 2,
    "unknown" : 0,
    "total" : 3
  },
  "time" : {
    "start" : 1596785193012,
    "stop" : 1596791943401,
    "duration" : 6750389,
    "minDuration" : 2018,
    "maxDuration" : 2202,
    "sumDuration" : 6295
  }
}